<?xml version="1.0" encoding="utf-8"?>
<!DOCTYPE eagle SYSTEM "eagle.dtd">
<eagle version="9.3.0">
<drawing>
<settings>
<setting alwaysvectorfont="no"/>
<setting verticaltext="up"/>
</settings>
<grid distance="0.1" unitdist="inch" unit="inch" style="lines" multiple="1" display="no" altdistance="0.01" altunitdist="inch" altunit="inch"/>
<layers>
<layer number="1" name="Top" color="4" fill="1" visible="no" active="no"/>
<layer number="2" name="Route2" color="16" fill="1" visible="no" active="no"/>
<layer number="3" name="Route3" color="17" fill="1" visible="no" active="no"/>
<layer number="4" name="Route4" color="18" fill="1" visible="no" active="no"/>
<layer number="5" name="Route5" color="19" fill="1" visible="no" active="no"/>
<layer number="6" name="Route6" color="25" fill="1" visible="no" active="no"/>
<layer number="7" name="Route7" color="26" fill="1" visible="no" active="no"/>
<layer number="8" name="Route8" color="27" fill="1" visible="no" active="no"/>
<layer number="9" name="Route9" color="28" fill="1" visible="no" active="no"/>
<layer number="10" name="Route10" color="29" fill="1" visible="no" active="no"/>
<layer number="11" name="Route11" color="30" fill="1" visible="no" active="no"/>
<layer number="12" name="Route12" color="20" fill="1" visible="no" active="no"/>
<layer number="13" name="Route13" color="21" fill="1" visible="no" active="no"/>
<layer number="14" name="Route14" color="22" fill="1" visible="no" active="no"/>
<layer number="15" name="Route15" color="23" fill="1" visible="no" active="no"/>
<layer number="16" name="Bottom" color="1" fill="1" visible="no" active="no"/>
<layer number="17" name="Pads" color="2" fill="1" visible="no" active="no"/>
<layer number="18" name="Vias" color="2" fill="1" visible="no" active="no"/>
<layer number="19" name="Unrouted" color="6" fill="1" visible="no" active="no"/>
<layer number="20" name="Dimension" color="24" fill="1" visible="no" active="no"/>
<layer number="21" name="tPlace" color="7" fill="1" visible="no" active="no"/>
<layer number="22" name="bPlace" color="7" fill="1" visible="no" active="no"/>
<layer number="23" name="tOrigins" color="15" fill="1" visible="no" active="no"/>
<layer number="24" name="bOrigins" color="15" fill="1" visible="no" active="no"/>
<layer number="25" name="tNames" color="7" fill="1" visible="no" active="no"/>
<layer number="26" name="bNames" color="7" fill="1" visible="no" active="no"/>
<layer number="27" name="tValues" color="7" fill="1" visible="no" active="no"/>
<layer number="28" name="bValues" color="7" fill="1" visible="no" active="no"/>
<layer number="29" name="tStop" color="7" fill="3" visible="no" active="no"/>
<layer number="30" name="bStop" color="7" fill="6" visible="no" active="no"/>
<layer number="31" name="tCream" color="7" fill="4" visible="no" active="no"/>
<layer number="32" name="bCream" color="7" fill="5" visible="no" active="no"/>
<layer number="33" name="tFinish" color="6" fill="3" visible="no" active="no"/>
<layer number="34" name="bFinish" color="6" fill="6" visible="no" active="no"/>
<layer number="35" name="tGlue" color="7" fill="4" visible="no" active="no"/>
<layer number="36" name="bGlue" color="7" fill="5" visible="no" active="no"/>
<layer number="37" name="tTest" color="7" fill="1" visible="no" active="no"/>
<layer number="38" name="bTest" color="7" fill="1" visible="no" active="no"/>
<layer number="39" name="tKeepout" color="4" fill="11" visible="no" active="no"/>
<layer number="40" name="bKeepout" color="1" fill="11" visible="no" active="no"/>
<layer number="41" name="tRestrict" color="4" fill="10" visible="no" active="no"/>
<layer number="42" name="bRestrict" color="1" fill="10" visible="no" active="no"/>
<layer number="43" name="vRestrict" color="2" fill="10" visible="no" active="no"/>
<layer number="44" name="Drills" color="7" fill="1" visible="no" active="no"/>
<layer number="45" name="Holes" color="7" fill="1" visible="no" active="no"/>
<layer number="46" name="Milling" color="3" fill="1" visible="no" active="no"/>
<layer number="47" name="Measures" color="7" fill="1" visible="no" active="no"/>
<layer number="48" name="Document" color="7" fill="1" visible="no" active="no"/>
<layer number="49" name="Reference" color="7" fill="1" visible="no" active="no"/>
<layer number="50" name="dxf" color="7" fill="1" visible="no" active="no"/>
<layer number="51" name="tDocu" color="7" fill="1" visible="no" active="no"/>
<layer number="52" name="bDocu" color="7" fill="1" visible="no" active="no"/>
<layer number="53" name="tGND_GNDA" color="7" fill="9" visible="no" active="no"/>
<layer number="54" name="bGND_GNDA" color="1" fill="9" visible="no" active="no"/>
<layer number="56" name="wert" color="7" fill="1" visible="no" active="no"/>
<layer number="57" name="tCAD" color="7" fill="1" visible="no" active="no"/>
<layer number="59" name="tCarbon" color="7" fill="1" visible="no" active="no"/>
<layer number="60" name="bCarbon" color="7" fill="1" visible="no" active="no"/>
<layer number="88" name="SimResults" color="9" fill="1" visible="yes" active="yes"/>
<layer number="89" name="SimProbes" color="9" fill="1" visible="yes" active="yes"/>
<layer number="90" name="Modules" color="5" fill="1" visible="yes" active="yes"/>
<layer number="91" name="Nets" color="2" fill="1" visible="yes" active="yes"/>
<layer number="92" name="Busses" color="1" fill="1" visible="yes" active="yes"/>
<layer number="93" name="Pins" color="2" fill="1" visible="no" active="yes"/>
<layer number="94" name="Symbols" color="4" fill="1" visible="yes" active="yes"/>
<layer number="95" name="Names" color="7" fill="1" visible="yes" active="yes"/>
<layer number="96" name="Values" color="7" fill="1" visible="yes" active="yes"/>
<layer number="97" name="Info" color="7" fill="1" visible="yes" active="yes"/>
<layer number="98" name="Guide" color="6" fill="1" visible="yes" active="yes"/>
<layer number="99" name="SpiceOrder" color="7" fill="1" visible="yes" active="yes"/>
<layer number="100" name="Muster" color="7" fill="1" visible="no" active="no"/>
<layer number="101" name="Patch_Top" color="12" fill="4" visible="no" active="yes"/>
<layer number="102" name="Vscore" color="7" fill="1" visible="no" active="yes"/>
<layer number="103" name="tMap" color="7" fill="1" visible="no" active="yes"/>
<layer number="104" name="Name" color="7" fill="1" visible="no" active="yes"/>
<layer number="105" name="tPlate" color="7" fill="1" visible="no" active="yes"/>
<layer number="106" name="bPlate" color="7" fill="1" visible="no" active="yes"/>
<layer number="107" name="Crop" color="7" fill="1" visible="no" active="yes"/>
<layer number="108" name="tplace-old" color="10" fill="1" visible="no" active="yes"/>
<layer number="109" name="ref-old" color="11" fill="1" visible="no" active="yes"/>
<layer number="110" name="fp0" color="7" fill="1" visible="no" active="yes"/>
<layer number="111" name="LPC17xx" color="7" fill="1" visible="no" active="yes"/>
<layer number="112" name="tSilk" color="7" fill="1" visible="no" active="yes"/>
<layer number="113" name="IDFDebug" color="7" fill="1" visible="no" active="yes"/>
<layer number="114" name="Badge_Outline" color="7" fill="1" visible="yes" active="yes"/>
<layer number="115" name="ReferenceISLANDS" color="7" fill="1" visible="yes" active="yes"/>
<layer number="116" name="Patch_BOT" color="9" fill="4" visible="no" active="yes"/>
<layer number="118" name="Rect_Pads" color="7" fill="1" visible="no" active="yes"/>
<layer number="121" name="_tsilk" color="7" fill="1" visible="no" active="yes"/>
<layer number="122" name="_bsilk" color="7" fill="1" visible="no" active="yes"/>
<layer number="123" name="tTestmark" color="7" fill="1" visible="no" active="yes"/>
<layer number="124" name="bTestmark" color="7" fill="1" visible="no" active="yes"/>
<layer number="125" name="_tNames" color="7" fill="1" visible="no" active="yes"/>
<layer number="126" name="_bNames" color="7" fill="1" visible="no" active="yes"/>
<layer number="127" name="_tValues" color="7" fill="1" visible="no" active="yes"/>
<layer number="128" name="_bValues" color="7" fill="1" visible="no" active="yes"/>
<layer number="129" name="Mask" color="7" fill="1" visible="no" active="yes"/>
<layer number="131" name="tAdjust" color="7" fill="1" visible="no" active="yes"/>
<layer number="132" name="bAdjust" color="7" fill="1" visible="no" active="yes"/>
<layer number="144" name="Drill_legend" color="7" fill="1" visible="no" active="yes"/>
<layer number="150" name="Notes" color="7" fill="1" visible="no" active="yes"/>
<layer number="151" name="HeatSink" color="7" fill="1" visible="no" active="yes"/>
<layer number="152" name="_bDocu" color="7" fill="1" visible="no" active="yes"/>
<layer number="153" name="FabDoc1" color="7" fill="1" visible="no" active="yes"/>
<layer number="154" name="FabDoc2" color="7" fill="1" visible="no" active="yes"/>
<layer number="155" name="FabDoc3" color="7" fill="1" visible="no" active="yes"/>
<layer number="199" name="Contour" color="7" fill="1" visible="no" active="yes"/>
<layer number="200" name="200bmp" color="1" fill="10" visible="no" active="yes"/>
<layer number="201" name="201bmp" color="2" fill="10" visible="no" active="yes"/>
<layer number="202" name="202bmp" color="3" fill="10" visible="no" active="yes"/>
<layer number="203" name="203bmp" color="4" fill="10" visible="no" active="yes"/>
<layer number="204" name="204bmp" color="5" fill="10" visible="no" active="yes"/>
<layer number="205" name="205bmp" color="6" fill="10" visible="no" active="yes"/>
<layer number="206" name="206bmp" color="7" fill="10" visible="no" active="yes"/>
<layer number="207" name="207bmp" color="8" fill="10" visible="no" active="yes"/>
<layer number="208" name="208bmp" color="9" fill="10" visible="no" active="yes"/>
<layer number="209" name="209bmp" color="7" fill="1" visible="no" active="yes"/>
<layer number="210" name="210bmp" color="7" fill="1" visible="no" active="yes"/>
<layer number="211" name="211bmp" color="7" fill="1" visible="no" active="yes"/>
<layer number="212" name="212bmp" color="7" fill="1" visible="no" active="yes"/>
<layer number="213" name="213bmp" color="7" fill="1" visible="no" active="yes"/>
<layer number="214" name="214bmp" color="7" fill="1" visible="no" active="yes"/>
<layer number="215" name="215bmp" color="7" fill="1" visible="no" active="yes"/>
<layer number="216" name="216bmp" color="7" fill="1" visible="no" active="yes"/>
<layer number="217" name="217bmp" color="18" fill="1" visible="no" active="no"/>
<layer number="218" name="218bmp" color="19" fill="1" visible="no" active="no"/>
<layer number="219" name="219bmp" color="20" fill="1" visible="no" active="no"/>
<layer number="220" name="220bmp" color="21" fill="1" visible="no" active="no"/>
<layer number="221" name="221bmp" color="22" fill="1" visible="no" active="no"/>
<layer number="222" name="222bmp" color="23" fill="1" visible="no" active="no"/>
<layer number="223" name="223bmp" color="24" fill="1" visible="no" active="no"/>
<layer number="224" name="224bmp" color="25" fill="1" visible="no" active="no"/>
<layer number="225" name="225bmp" color="7" fill="1" visible="no" active="yes"/>
<layer number="226" name="226bmp" color="7" fill="1" visible="no" active="yes"/>
<layer number="227" name="227bmp" color="7" fill="1" visible="no" active="yes"/>
<layer number="228" name="228bmp" color="7" fill="1" visible="no" active="yes"/>
<layer number="229" name="229bmp" color="7" fill="1" visible="no" active="yes"/>
<layer number="230" name="230bmp" color="7" fill="1" visible="no" active="yes"/>
<layer number="231" name="231bmp" color="7" fill="1" visible="no" active="yes"/>
<layer number="248" name="Housing" color="7" fill="1" visible="no" active="yes"/>
<layer number="249" name="Edge" color="7" fill="1" visible="no" active="yes"/>
<layer number="250" name="Descript" color="3" fill="1" visible="no" active="no"/>
<layer number="251" name="SMDround" color="12" fill="11" visible="no" active="no"/>
<layer number="254" name="cooling" color="7" fill="1" visible="no" active="yes"/>
<layer number="255" name="routoute" color="7" fill="1" visible="no" active="yes"/>
</layers>
<schematic xreflabel="%F%N/%S.%C%R" xrefpart="/%S.%C%R">
<libraries>
<library name="fab">
<packages>
<package name="SOIC14">
<description>&lt;b&gt;Small Outline Package&lt;/b&gt;</description>
<wire x1="-4.267" y1="-1.791" x2="4.267" y2="-1.791" width="0.1524" layer="51"/>
<wire x1="4.267" y1="-1.791" x2="4.267" y2="1.791" width="0.1524" layer="21"/>
<wire x1="4.267" y1="1.791" x2="-4.267" y2="1.791" width="0.1524" layer="51"/>
<wire x1="-4.267" y1="1.791" x2="-4.267" y2="-1.791" width="0.1524" layer="21"/>
<circle x="-3.5052" y="-0.7747" radius="0.5334" width="0.1524" layer="21"/>
<smd name="1" x="-3.81" y="-2.6035" dx="0.6096" dy="2.2098" layer="1"/>
<smd name="14" x="-3.81" y="2.6035" dx="0.6096" dy="2.2098" layer="1"/>
<smd name="2" x="-2.54" y="-2.6035" dx="0.6096" dy="2.2098" layer="1"/>
<smd name="3" x="-1.27" y="-2.6035" dx="0.6096" dy="2.2098" layer="1"/>
<smd name="13" x="-2.54" y="2.6035" dx="0.6096" dy="2.2098" layer="1"/>
<smd name="12" x="-1.27" y="2.6035" dx="0.6096" dy="2.2098" layer="1"/>
<smd name="4" x="0" y="-2.6035" dx="0.6096" dy="2.2098" layer="1"/>
<smd name="11" x="0" y="2.6035" dx="0.6096" dy="2.2098" layer="1"/>
<smd name="5" x="1.27" y="-2.6035" dx="0.6096" dy="2.2098" layer="1"/>
<smd name="6" x="2.54" y="-2.6035" dx="0.6096" dy="2.2098" layer="1"/>
<smd name="10" x="1.27" y="2.6035" dx="0.6096" dy="2.2098" layer="1"/>
<smd name="9" x="2.54" y="2.6035" dx="0.6096" dy="2.2098" layer="1"/>
<smd name="7" x="3.81" y="-2.6035" dx="0.6096" dy="2.2098" layer="1"/>
<smd name="8" x="3.81" y="2.6035" dx="0.6096" dy="2.2098" layer="1"/>
<text x="-4.5085" y="-2.032" size="1.27" layer="25" ratio="10" rot="R90">&gt;NAME</text>
<text x="-2.54" y="-0.6985" size="1.27" layer="27" ratio="10">&gt;VALUE</text>
<rectangle x1="-3.9878" y1="1.8415" x2="-3.6322" y2="2.8575" layer="51"/>
<rectangle x1="-2.7178" y1="1.8415" x2="-2.3622" y2="2.8575" layer="51"/>
<rectangle x1="-1.4478" y1="1.8415" x2="-1.0922" y2="2.8575" layer="51"/>
<rectangle x1="-0.1778" y1="1.8415" x2="0.1778" y2="2.8575" layer="51"/>
<rectangle x1="1.0922" y1="1.8415" x2="1.4478" y2="2.8575" layer="51"/>
<rectangle x1="2.3622" y1="1.8415" x2="2.7178" y2="2.8575" layer="51"/>
<rectangle x1="3.6322" y1="1.8415" x2="3.9878" y2="2.8575" layer="51"/>
<rectangle x1="3.6322" y1="-2.8575" x2="3.9878" y2="-1.8415" layer="51"/>
<rectangle x1="2.3622" y1="-2.8575" x2="2.7178" y2="-1.8415" layer="51"/>
<rectangle x1="1.0922" y1="-2.8575" x2="1.4478" y2="-1.8415" layer="51"/>
<rectangle x1="-0.1778" y1="-2.8575" x2="0.1778" y2="-1.8415" layer="51"/>
<rectangle x1="-1.4478" y1="-2.8575" x2="-1.0922" y2="-1.8415" layer="51"/>
<rectangle x1="-2.7178" y1="-2.8575" x2="-2.3622" y2="-1.8415" layer="51"/>
<rectangle x1="-3.9878" y1="-2.8575" x2="-3.6322" y2="-1.8415" layer="51"/>
</package>
<package name="DIL14">
<description>&lt;b&gt;Dual In Line Package&lt;/b&gt;</description>
<wire x1="8.89" y1="2.921" x2="-8.89" y2="2.921" width="0.1524" layer="21"/>
<wire x1="-8.89" y1="-2.921" x2="8.89" y2="-2.921" width="0.1524" layer="21"/>
<wire x1="8.89" y1="2.921" x2="8.89" y2="-2.921" width="0.1524" layer="21"/>
<wire x1="-8.89" y1="2.921" x2="-8.89" y2="1.016" width="0.1524" layer="21"/>
<wire x1="-8.89" y1="-2.921" x2="-8.89" y2="-1.016" width="0.1524" layer="21"/>
<wire x1="-8.89" y1="1.016" x2="-8.89" y2="-1.016" width="0.1524" layer="21" curve="-180"/>
<pad name="1" x="-7.62" y="-3.81" drill="0.8128" shape="long" rot="R90"/>
<pad name="2" x="-5.08" y="-3.81" drill="0.8128" shape="long" rot="R90"/>
<pad name="7" x="7.62" y="-3.81" drill="0.8128" shape="long" rot="R90"/>
<pad name="8" x="7.62" y="3.81" drill="0.8128" shape="long" rot="R90"/>
<pad name="3" x="-2.54" y="-3.81" drill="0.8128" shape="long" rot="R90"/>
<pad name="4" x="0" y="-3.81" drill="0.8128" shape="long" rot="R90"/>
<pad name="6" x="5.08" y="-3.81" drill="0.8128" shape="long" rot="R90"/>
<pad name="5" x="2.54" y="-3.81" drill="0.8128" shape="long" rot="R90"/>
<pad name="9" x="5.08" y="3.81" drill="0.8128" shape="long" rot="R90"/>
<pad name="10" x="2.54" y="3.81" drill="0.8128" shape="long" rot="R90"/>
<pad name="11" x="0" y="3.81" drill="0.8128" shape="long" rot="R90"/>
<pad name="12" x="-2.54" y="3.81" drill="0.8128" shape="long" rot="R90"/>
<pad name="13" x="-5.08" y="3.81" drill="0.8128" shape="long" rot="R90"/>
<pad name="14" x="-7.62" y="3.81" drill="0.8128" shape="long" rot="R90"/>
<text x="-9.271" y="-3.048" size="1.27" layer="25" ratio="10" rot="R90">&gt;NAME</text>
<text x="-6.731" y="-0.635" size="1.27" layer="27" ratio="10">&gt;VALUE</text>
</package>
<package name="QFN/MLF20">
<description>&lt;b&gt;HP-VFQFP-N20&lt;/b&gt; Micro Lead Frame package (MLF)</description>
<wire x1="-2.375" y1="2.05" x2="-2.05" y2="2.375" width="0.254" layer="21"/>
<wire x1="-2.05" y1="2.375" x2="2.05" y2="2.375" width="0.254" layer="51"/>
<wire x1="2.05" y1="-2.375" x2="-2.05" y2="-2.375" width="0.254" layer="51"/>
<wire x1="-2.05" y1="-2.375" x2="-2.375" y2="-2.05" width="0.254" layer="21"/>
<wire x1="-2.375" y1="-2.05" x2="-2.375" y2="2.05" width="0.254" layer="51"/>
<wire x1="2.375" y1="2.05" x2="2.375" y2="-2.05" width="0.254" layer="51"/>
<wire x1="2.05" y1="2.375" x2="2.375" y2="2.05" width="0.254" layer="21"/>
<wire x1="2.375" y1="-2.05" x2="2.05" y2="-2.375" width="0.254" layer="21"/>
<circle x="-1.55" y="1.55" radius="0.15" width="0.254" layer="21"/>
<smd name="1" x="-2.25" y="1.3" dx="0.9" dy="0.35" layer="1" roundness="50"/>
<smd name="2" x="-2.25" y="0.65" dx="0.9" dy="0.35" layer="1" roundness="50"/>
<smd name="3" x="-2.25" y="0" dx="0.9" dy="0.35" layer="1" roundness="50"/>
<smd name="4" x="-2.25" y="-0.65" dx="0.9" dy="0.35" layer="1" roundness="50"/>
<smd name="5" x="-2.25" y="-1.3" dx="0.9" dy="0.35" layer="1" roundness="50"/>
<smd name="6" x="-1.3" y="-2.25" dx="0.35" dy="0.9" layer="1" roundness="50"/>
<smd name="7" x="-0.65" y="-2.25" dx="0.35" dy="0.9" layer="1" roundness="50"/>
<smd name="8" x="0" y="-2.25" dx="0.35" dy="0.9" layer="1" roundness="50"/>
<smd name="9" x="0.65" y="-2.25" dx="0.35" dy="0.9" layer="1" roundness="50"/>
<smd name="10" x="1.3" y="-2.25" dx="0.35" dy="0.9" layer="1" roundness="50"/>
<smd name="11" x="2.25" y="-1.3" dx="0.9" dy="0.35" layer="1" roundness="50"/>
<smd name="12" x="2.25" y="-0.65" dx="0.9" dy="0.35" layer="1" roundness="50"/>
<smd name="13" x="2.25" y="0" dx="0.9" dy="0.35" layer="1" roundness="50"/>
<smd name="14" x="2.25" y="0.65" dx="0.9" dy="0.35" layer="1" roundness="50"/>
<smd name="15" x="2.25" y="1.3" dx="0.9" dy="0.35" layer="1" roundness="50"/>
<smd name="16" x="1.3" y="2.25" dx="0.35" dy="0.9" layer="1" roundness="50"/>
<smd name="17" x="0.65" y="2.25" dx="0.35" dy="0.9" layer="1" roundness="50"/>
<smd name="18" x="0" y="2.25" dx="0.35" dy="0.9" layer="1" roundness="50"/>
<smd name="19" x="-0.65" y="2.25" dx="0.35" dy="0.9" layer="1" roundness="50"/>
<smd name="20" x="-1.3" y="2.25" dx="0.35" dy="0.9" layer="1" roundness="50"/>
<text x="-2.54" y="3.175" size="1.27" layer="25">&gt;NAME</text>
<text x="-2.54" y="-4.445" size="1.27" layer="27">&gt;VALUE</text>
<rectangle x1="-2.35" y1="1.15" x2="-1.9" y2="1.45" layer="51"/>
<rectangle x1="-2.35" y1="0.5" x2="-1.9" y2="0.8" layer="51"/>
<rectangle x1="-2.35" y1="-0.15" x2="-1.9" y2="0.15" layer="51"/>
<rectangle x1="-2.35" y1="-0.8" x2="-1.9" y2="-0.5" layer="51"/>
<rectangle x1="-2.35" y1="-1.45" x2="-1.9" y2="-1.15" layer="51"/>
<rectangle x1="-1.45" y1="-2.35" x2="-1.15" y2="-1.9" layer="51"/>
<rectangle x1="-0.8" y1="-2.35" x2="-0.5" y2="-1.9" layer="51"/>
<rectangle x1="-0.15" y1="-2.35" x2="0.15" y2="-1.9" layer="51"/>
<rectangle x1="0.5" y1="-2.35" x2="0.8" y2="-1.9" layer="51"/>
<rectangle x1="1.15" y1="-2.35" x2="1.45" y2="-1.9" layer="51"/>
<rectangle x1="1.9" y1="-1.45" x2="2.35" y2="-1.15" layer="51"/>
<rectangle x1="1.9" y1="-0.8" x2="2.35" y2="-0.5" layer="51"/>
<rectangle x1="1.9" y1="-0.15" x2="2.35" y2="0.15" layer="51"/>
<rectangle x1="1.9" y1="0.5" x2="2.35" y2="0.8" layer="51"/>
<rectangle x1="1.9" y1="1.15" x2="2.35" y2="1.45" layer="51"/>
<rectangle x1="1.15" y1="1.9" x2="1.45" y2="2.35" layer="51"/>
<rectangle x1="0.5" y1="1.9" x2="0.8" y2="2.35" layer="51"/>
<rectangle x1="-0.15" y1="1.9" x2="0.15" y2="2.35" layer="51"/>
<rectangle x1="-0.8" y1="1.9" x2="-0.5" y2="2.35" layer="51"/>
<rectangle x1="-1.45" y1="1.9" x2="-1.15" y2="2.35" layer="51"/>
</package>
<package name="2X03SMD">
<smd name="1" x="-2.54" y="2.54" dx="2.54" dy="1.27" layer="1"/>
<smd name="3" x="-2.54" y="0" dx="2.54" dy="1.27" layer="1"/>
<smd name="5" x="-2.54" y="-2.54" dx="2.54" dy="1.27" layer="1"/>
<smd name="2" x="2.92" y="2.54" dx="2.54" dy="1.27" layer="1"/>
<smd name="4" x="2.92" y="0" dx="2.54" dy="1.27" layer="1"/>
<smd name="6" x="2.92" y="-2.54" dx="2.54" dy="1.27" layer="1"/>
<text x="-5.08" y="2.54" size="1.27" layer="27">1</text>
<text x="-3.81" y="3.81" size="1.27" layer="25">&gt;NAME</text>
<text x="-3.81" y="-5.08" size="1.27" layer="27">&gt;VALUE</text>
</package>
<package name="2X03">
<description>&lt;b&gt;PIN HEADER&lt;/b&gt;</description>
<wire x1="-3.81" y1="-1.905" x2="-3.175" y2="-2.54" width="0.1524" layer="21"/>
<wire x1="-1.905" y1="-2.54" x2="-1.27" y2="-1.905" width="0.1524" layer="21"/>
<wire x1="-1.27" y1="-1.905" x2="-0.635" y2="-2.54" width="0.1524" layer="21"/>
<wire x1="0.635" y1="-2.54" x2="1.27" y2="-1.905" width="0.1524" layer="21"/>
<wire x1="-3.81" y1="-1.905" x2="-3.81" y2="1.905" width="0.1524" layer="21"/>
<wire x1="-3.81" y1="1.905" x2="-3.175" y2="2.54" width="0.1524" layer="21"/>
<wire x1="-3.175" y1="2.54" x2="-1.905" y2="2.54" width="0.1524" layer="21"/>
<wire x1="-1.905" y1="2.54" x2="-1.27" y2="1.905" width="0.1524" layer="21"/>
<wire x1="-1.27" y1="1.905" x2="-0.635" y2="2.54" width="0.1524" layer="21"/>
<wire x1="-0.635" y1="2.54" x2="0.635" y2="2.54" width="0.1524" layer="21"/>
<wire x1="0.635" y1="2.54" x2="1.27" y2="1.905" width="0.1524" layer="21"/>
<wire x1="-1.27" y1="1.905" x2="-1.27" y2="-1.905" width="0.1524" layer="21"/>
<wire x1="1.27" y1="1.905" x2="1.27" y2="-1.905" width="0.1524" layer="21"/>
<wire x1="-0.635" y1="-2.54" x2="0.635" y2="-2.54" width="0.1524" layer="21"/>
<wire x1="-3.175" y1="-2.54" x2="-1.905" y2="-2.54" width="0.1524" layer="21"/>
<wire x1="1.27" y1="-1.905" x2="1.905" y2="-2.54" width="0.1524" layer="21"/>
<wire x1="3.175" y1="-2.54" x2="3.81" y2="-1.905" width="0.1524" layer="21"/>
<wire x1="1.27" y1="1.905" x2="1.905" y2="2.54" width="0.1524" layer="21"/>
<wire x1="1.905" y1="2.54" x2="3.175" y2="2.54" width="0.1524" layer="21"/>
<wire x1="3.175" y1="2.54" x2="3.81" y2="1.905" width="0.1524" layer="21"/>
<wire x1="3.81" y1="1.905" x2="3.81" y2="-1.905" width="0.1524" layer="21"/>
<wire x1="1.905" y1="-2.54" x2="3.175" y2="-2.54" width="0.1524" layer="21"/>
<wire x1="-3.175" y1="-2.921" x2="-1.905" y2="-2.921" width="0.127" layer="21"/>
<pad name="1" x="-2.54" y="-1.27" drill="1.016" shape="square"/>
<pad name="2" x="-2.54" y="1.27" drill="1.016" shape="octagon"/>
<pad name="3" x="0" y="-1.27" drill="1.016" shape="octagon"/>
<pad name="4" x="0" y="1.27" drill="1.016" shape="octagon"/>
<pad name="5" x="2.54" y="-1.27" drill="1.016" shape="octagon"/>
<pad name="6" x="2.54" y="1.27" drill="1.016" shape="octagon"/>
<text x="-3.81" y="3.175" size="1.27" layer="25" ratio="10">&gt;NAME</text>
<text x="-3.81" y="-4.445" size="1.27" layer="27">&gt;VALUE</text>
<text x="-5.08" y="-2.54" size="1.27" layer="21">1</text>
<rectangle x1="-2.794" y1="-1.524" x2="-2.286" y2="-1.016" layer="51"/>
<rectangle x1="-2.794" y1="1.016" x2="-2.286" y2="1.524" layer="51"/>
<rectangle x1="-0.254" y1="1.016" x2="0.254" y2="1.524" layer="51"/>
<rectangle x1="-0.254" y1="-1.524" x2="0.254" y2="-1.016" layer="51"/>
<rectangle x1="2.286" y1="1.016" x2="2.794" y2="1.524" layer="51"/>
<rectangle x1="2.286" y1="-1.524" x2="2.794" y2="-1.016" layer="51"/>
</package>
<package name="2-SMD-5X3MM">
<wire x1="-2.5" y1="1.3" x2="-2.5" y2="1.6" width="0.127" layer="21"/>
<wire x1="-2.5" y1="1.6" x2="2.5" y2="1.6" width="0.127" layer="21"/>
<wire x1="2.5" y1="1.6" x2="2.5" y2="1.3" width="0.127" layer="21"/>
<wire x1="2.5" y1="-1.3" x2="2.5" y2="-1.6" width="0.127" layer="21"/>
<wire x1="2.5" y1="-1.6" x2="-2.5" y2="-1.6" width="0.127" layer="21"/>
<wire x1="-2.5" y1="-1.6" x2="-2.5" y2="-1.3" width="0.127" layer="21"/>
<smd name="P$1" x="-2" y="0" dx="2" dy="2.4" layer="1"/>
<smd name="P$2" x="2" y="0" dx="2" dy="2.4" layer="1"/>
<text x="-2.54" y="2.54" size="1.27" layer="25">&gt;NAME</text>
<text x="-2.54" y="-3.81" size="1.27" layer="27">&gt;VALUE</text>
</package>
<package name="C1206">
<description>&lt;b&gt;CAPACITOR&lt;/b&gt;</description>
<wire x1="-2.473" y1="0.983" x2="2.473" y2="0.983" width="0.0508" layer="39"/>
<wire x1="2.473" y1="-0.983" x2="-2.473" y2="-0.983" width="0.0508" layer="39"/>
<wire x1="-2.473" y1="-0.983" x2="-2.473" y2="0.983" width="0.0508" layer="39"/>
<wire x1="2.473" y1="0.983" x2="2.473" y2="-0.983" width="0.0508" layer="39"/>
<wire x1="-0.965" y1="0.787" x2="0.965" y2="0.787" width="0.1016" layer="51"/>
<wire x1="-0.965" y1="-0.787" x2="0.965" y2="-0.787" width="0.1016" layer="51"/>
<smd name="1" x="-1.4" y="0" dx="1.6" dy="1.8" layer="1"/>
<smd name="2" x="1.4" y="0" dx="1.6" dy="1.8" layer="1"/>
<text x="-1.27" y="1.27" size="1.27" layer="25">&gt;NAME</text>
<text x="-1.27" y="-2.54" size="1.27" layer="27">&gt;VALUE</text>
<rectangle x1="-1.7018" y1="-0.8509" x2="-0.9517" y2="0.8491" layer="51"/>
<rectangle x1="0.9517" y1="-0.8491" x2="1.7018" y2="0.8509" layer="51"/>
<rectangle x1="-0.1999" y1="-0.4001" x2="0.1999" y2="0.4001" layer="35"/>
</package>
<package name="C1206FAB">
<wire x1="-2.032" y1="1.016" x2="2.032" y2="1.016" width="0.127" layer="21"/>
<wire x1="2.032" y1="1.016" x2="2.032" y2="-1.016" width="0.127" layer="21"/>
<wire x1="2.032" y1="-1.016" x2="-2.032" y2="-1.016" width="0.127" layer="21"/>
<wire x1="-2.032" y1="-1.016" x2="-2.032" y2="1.016" width="0.127" layer="21"/>
<smd name="1" x="-1.651" y="0" dx="1.27" dy="1.905" layer="1"/>
<smd name="2" x="1.651" y="0" dx="1.27" dy="1.905" layer="1"/>
<text x="-1.778" y="1.27" size="1.016" layer="25" ratio="15">&gt;NAME</text>
<text x="-1.778" y="-2.286" size="1.016" layer="27" ratio="15">&gt;VALUE</text>
</package>
<package name="R1206">
<description>&lt;b&gt;RESISTOR&lt;/b&gt;</description>
<wire x1="0.9525" y1="-0.8128" x2="-0.9652" y2="-0.8128" width="0.1524" layer="51"/>
<wire x1="0.9525" y1="0.8128" x2="-0.9652" y2="0.8128" width="0.1524" layer="51"/>
<wire x1="-2.473" y1="0.983" x2="2.473" y2="0.983" width="0.0508" layer="39"/>
<wire x1="2.473" y1="0.983" x2="2.473" y2="-0.983" width="0.0508" layer="39"/>
<wire x1="2.473" y1="-0.983" x2="-2.473" y2="-0.983" width="0.0508" layer="39"/>
<wire x1="-2.473" y1="-0.983" x2="-2.473" y2="0.983" width="0.0508" layer="39"/>
<smd name="2" x="1.422" y="0" dx="1.6" dy="1.803" layer="1"/>
<smd name="1" x="-1.422" y="0" dx="1.6" dy="1.803" layer="1"/>
<text x="-1.27" y="1.27" size="1.27" layer="25">&gt;NAME</text>
<text x="-1.27" y="-2.54" size="1.27" layer="27">&gt;VALUE</text>
<rectangle x1="-1.6891" y1="-0.8763" x2="-0.9525" y2="0.8763" layer="51"/>
<rectangle x1="0.9525" y1="-0.8763" x2="1.6891" y2="0.8763" layer="51"/>
<rectangle x1="-0.3" y1="-0.7" x2="0.3" y2="0.7" layer="35"/>
</package>
<package name="R1206W">
<description>&lt;b&gt;RESISTOR&lt;/b&gt;&lt;p&gt;
wave soldering</description>
<wire x1="-0.913" y1="0.8" x2="0.888" y2="0.8" width="0.1524" layer="51"/>
<wire x1="-0.913" y1="-0.8" x2="0.888" y2="-0.8" width="0.1524" layer="51"/>
<wire x1="-2.473" y1="0.983" x2="2.473" y2="0.983" width="0.0508" layer="39"/>
<wire x1="2.473" y1="0.983" x2="2.473" y2="-0.983" width="0.0508" layer="39"/>
<wire x1="2.473" y1="-0.983" x2="-2.473" y2="-0.983" width="0.0508" layer="39"/>
<wire x1="-2.473" y1="-0.983" x2="-2.473" y2="0.983" width="0.0508" layer="39"/>
<smd name="1" x="-1.499" y="0" dx="1.8" dy="1.2" layer="1"/>
<smd name="2" x="1.499" y="0" dx="1.8" dy="1.2" layer="1"/>
<text x="-1.905" y="1.27" size="1.27" layer="25">&gt;NAME</text>
<text x="-1.905" y="-2.54" size="1.27" layer="27">&gt;VALUE</text>
<rectangle x1="-1.651" y1="-0.8763" x2="-0.9009" y2="0.8738" layer="51"/>
<rectangle x1="0.889" y1="-0.8763" x2="1.6391" y2="0.8738" layer="51"/>
<rectangle x1="-0.3" y1="-0.7" x2="0.3" y2="0.7" layer="35"/>
</package>
<package name="R1206FAB">
<wire x1="-2.032" y1="1.016" x2="2.032" y2="1.016" width="0.127" layer="21"/>
<wire x1="2.032" y1="1.016" x2="2.032" y2="-1.016" width="0.127" layer="21"/>
<wire x1="2.032" y1="-1.016" x2="-2.032" y2="-1.016" width="0.127" layer="21"/>
<wire x1="-2.032" y1="-1.016" x2="-2.032" y2="1.016" width="0.127" layer="21"/>
<smd name="1" x="-1.651" y="0" dx="1.27" dy="1.905" layer="1"/>
<smd name="2" x="1.651" y="0" dx="1.27" dy="1.905" layer="1"/>
<text x="-1.778" y="1.27" size="1.016" layer="25" ratio="15">&gt;NAME</text>
<text x="-1.778" y="-2.286" size="1.016" layer="27" ratio="15">&gt;VALUE</text>
</package>
<package name="1X06SMD">
<smd name="1" x="0" y="6.35" dx="2.54" dy="1.27" layer="1"/>
<smd name="2" x="0" y="3.81" dx="2.54" dy="1.27" layer="1"/>
<smd name="3" x="0" y="1.27" dx="2.54" dy="1.27" layer="1"/>
<smd name="4" x="0" y="-1.27" dx="2.54" dy="1.27" layer="1"/>
<smd name="5" x="0" y="-3.81" dx="2.54" dy="1.27" layer="1"/>
<smd name="6" x="0" y="-6.35" dx="2.54" dy="1.27" layer="1"/>
<text x="-1.905" y="-3.175" size="1.27" layer="25" rot="R90">&gt;NAME</text>
</package>
<package name="P-LCC-4">
<description>&lt;b&gt;Power TOPLED®&lt;/b&gt;&lt;p&gt;
Source: http://www.osram.convergy.de/ ... LA_LO_LA_LY E67B.pdf</description>
<wire x1="-1.4" y1="-1.05" x2="-1.4" y2="-1.6" width="0.2032" layer="51"/>
<wire x1="-1.4" y1="-1.6" x2="-1" y2="-1.6" width="0.2032" layer="51"/>
<wire x1="-1" y1="-1.6" x2="-0.85" y2="-1.6" width="0.2032" layer="51"/>
<wire x1="-0.85" y1="-1.6" x2="1" y2="-1.6" width="0.2032" layer="51"/>
<wire x1="1" y1="-1.6" x2="1.4" y2="-1.6" width="0.2032" layer="51"/>
<wire x1="1.4" y1="-1.6" x2="1.4" y2="1.6" width="0.2032" layer="51"/>
<wire x1="1.4" y1="1.6" x2="1.1" y2="1.6" width="0.2032" layer="51"/>
<wire x1="1.1" y1="1.6" x2="-1" y2="1.6" width="0.2032" layer="51"/>
<wire x1="-1" y1="1.6" x2="-1.4" y2="1.6" width="0.2032" layer="51"/>
<wire x1="-1" y1="1.6" x2="-1" y2="1.8" width="0.1016" layer="51"/>
<wire x1="-1" y1="1.8" x2="-0.5" y2="1.8" width="0.1016" layer="51"/>
<wire x1="-0.5" y1="1.8" x2="-0.5" y2="1.65" width="0.1016" layer="51"/>
<wire x1="0.5" y1="1.65" x2="0.5" y2="1.8" width="0.1016" layer="51"/>
<wire x1="0.5" y1="1.8" x2="1.1" y2="1.8" width="0.1016" layer="51"/>
<wire x1="1.1" y1="1.8" x2="1.1" y2="1.6" width="0.1016" layer="51"/>
<wire x1="-1" y1="-1.6" x2="-1" y2="-1.8" width="0.1016" layer="51"/>
<wire x1="-1" y1="-1.8" x2="-0.5" y2="-1.8" width="0.1016" layer="51"/>
<wire x1="-0.5" y1="-1.8" x2="-0.5" y2="-1.65" width="0.1016" layer="51"/>
<wire x1="0.5" y1="-1.65" x2="0.5" y2="-1.8" width="0.1016" layer="51"/>
<wire x1="0.5" y1="-1.8" x2="1" y2="-1.8" width="0.1016" layer="51"/>
<wire x1="1" y1="-1.8" x2="1" y2="-1.6" width="0.1016" layer="51"/>
<wire x1="-0.85" y1="-1.6" x2="-1.4" y2="-1.05" width="0.2032" layer="51"/>
<wire x1="-1.4" y1="1.6" x2="-1.4" y2="-1.05" width="0.2032" layer="51"/>
<circle x="0" y="0" radius="1.1" width="0.2032" layer="51"/>
<smd name="G" x="-2" y="3.15" dx="3.3" dy="4.8" layer="1" stop="no" cream="no"/>
<smd name="B" x="2" y="3.15" dx="3.3" dy="4.8" layer="1" stop="no" cream="no"/>
<smd name="A" x="2" y="-3.15" dx="3.3" dy="4.8" layer="1" stop="no" cream="no"/>
<smd name="R" x="-2" y="-3.15" dx="3.3" dy="4.8" layer="1" stop="no" cream="no"/>
<text x="-3.81" y="-2.54" size="1.27" layer="25" rot="R90">&gt;NAME</text>
<text x="5.08" y="-2.54" size="1.27" layer="27" rot="R90">&gt;VALUE</text>
<text x="-1.905" y="-3.81" size="1.27" layer="21">R</text>
<text x="-1.905" y="2.54" size="1.27" layer="21">G</text>
<text x="1.27" y="2.54" size="1.27" layer="21">B</text>
<text x="1.27" y="-3.81" size="1.27" layer="21">A</text>
<rectangle x1="-1.15" y1="0.75" x2="-0.35" y2="1.85" layer="29"/>
<rectangle x1="0.35" y1="0.75" x2="1.15" y2="1.85" layer="29"/>
<rectangle x1="0.35" y1="-1.85" x2="1.15" y2="-0.75" layer="29"/>
<rectangle x1="-1.15" y1="-1.85" x2="-0.35" y2="-0.75" layer="29"/>
<rectangle x1="-1.1" y1="-1.8" x2="-0.4" y2="-0.8" layer="31"/>
<rectangle x1="0.4" y1="-1.8" x2="1.1" y2="-0.8" layer="31"/>
<rectangle x1="0.4" y1="0.8" x2="1.1" y2="1.8" layer="31"/>
<rectangle x1="-1.1" y1="0.8" x2="-0.4" y2="1.8" layer="31"/>
<rectangle x1="-0.2" y1="-0.2" x2="0.2" y2="0.2" layer="21"/>
</package>
<package name="2X02SMD">
<smd name="1" x="-2.54" y="1.27" dx="2.54" dy="1.27" layer="1"/>
<smd name="3" x="-2.54" y="-1.27" dx="2.54" dy="1.27" layer="1"/>
<smd name="2" x="2.92" y="1.27" dx="2.54" dy="1.27" layer="1"/>
<smd name="4" x="2.92" y="-1.27" dx="2.54" dy="1.27" layer="1"/>
<text x="-5.08" y="1.27" size="1.27" layer="27">1</text>
<text x="-3.81" y="2.54" size="1.27" layer="21">&gt;NAME</text>
<text x="-3.81" y="-3.81" size="1.27" layer="21">&gt;VALUE</text>
</package>
</packages>
<symbols>
<symbol name="ATTINY24/44/84">
<wire x1="-2.54" y1="17.78" x2="45.72" y2="17.78" width="0.254" layer="94"/>
<wire x1="45.72" y1="17.78" x2="45.72" y2="-17.78" width="0.254" layer="94"/>
<wire x1="45.72" y1="-17.78" x2="-2.54" y2="-17.78" width="0.254" layer="94"/>
<wire x1="-2.54" y1="-17.78" x2="-2.54" y2="17.78" width="0.254" layer="94"/>
<text x="-2.54" y="-20.32" size="1.778" layer="96">&gt;VALUE</text>
<text x="-2.54" y="18.542" size="1.778" layer="95">&gt;NAME</text>
<pin name="GND" x="-7.62" y="-15.24" length="middle" direction="pwr"/>
<pin name="VCC" x="-7.62" y="-2.54" length="middle" direction="pwr"/>
<pin name="(PCINT7/ICP/OC0B/ADC7)PA7" x="50.8" y="2.54" length="middle" rot="R180"/>
<pin name="(PCINT6/OC1A/SDA/MOSI/ADC6)PA6" x="50.8" y="0" length="middle" rot="R180"/>
<pin name="(PCINT5/OC1B/MISO/DO/ADC5)PA5" x="50.8" y="-2.54" length="middle" rot="R180"/>
<pin name="(PCINT4/T1/SCL/USCK/ADC4)PA4" x="50.8" y="-5.08" length="middle" rot="R180"/>
<pin name="(PCINT3/T0/ADC3)PA3" x="50.8" y="-7.62" length="middle" rot="R180"/>
<pin name="(PCINT2/AIN1/ADC2)PA2" x="50.8" y="-10.16" length="middle" rot="R180"/>
<pin name="(PCINT1/AIN0/ADC1)PA1" x="50.8" y="-12.7" length="middle" rot="R180"/>
<pin name="(PCINT0/AREF/ADC0)PA0" x="50.8" y="-15.24" length="middle" rot="R180"/>
<pin name="(PCINT11/RESET/DW)PB3" x="50.8" y="15.24" length="middle" rot="R180"/>
<pin name="(PCINT10/INT0/OC0A/CKOUT)PB2" x="50.8" y="12.7" length="middle" rot="R180"/>
<pin name="(PCINT9/XTAL2)PB1" x="50.8" y="10.16" length="middle" rot="R180"/>
<pin name="(PCINT8/XTAL1/CLKI)PB0" x="50.8" y="7.62" length="middle" rot="R180"/>
</symbol>
<symbol name="AVRISP">
<wire x1="-6.35" y1="-5.08" x2="8.89" y2="-5.08" width="0.4064" layer="94"/>
<wire x1="8.89" y1="-5.08" x2="8.89" y2="5.08" width="0.4064" layer="94"/>
<wire x1="8.89" y1="5.08" x2="-6.35" y2="5.08" width="0.4064" layer="94"/>
<wire x1="-6.35" y1="5.08" x2="-6.35" y2="-5.08" width="0.4064" layer="94"/>
<text x="-6.35" y="5.715" size="1.778" layer="95">&gt;NAME</text>
<text x="-6.35" y="-7.62" size="1.778" layer="96">&gt;VALUE</text>
<text x="-5.08" y="3.175" size="1.27" layer="95">MISO</text>
<text x="-5.08" y="0.635" size="1.27" layer="95">SCK</text>
<text x="-5.08" y="-1.905" size="1.27" layer="95">RST</text>
<text x="7.62" y="3.175" size="1.27" layer="95" rot="MR0">VCC</text>
<text x="7.62" y="0.635" size="1.27" layer="95" rot="MR0">MOSI</text>
<text x="7.62" y="-1.905" size="1.27" layer="95" rot="MR0">GND</text>
<pin name="MISO" x="-2.54" y="2.54" visible="off" length="short" direction="pas" function="dot"/>
<pin name="VCC" x="5.08" y="2.54" visible="off" length="short" direction="pas" function="dot" rot="R180"/>
<pin name="SCK" x="-2.54" y="0" visible="off" length="short" direction="pas" function="dot"/>
<pin name="MOSI" x="5.08" y="0" visible="off" length="short" direction="pas" function="dot" rot="R180"/>
<pin name="RST" x="-2.54" y="-2.54" visible="off" length="short" direction="pas" function="dot"/>
<pin name="GND" x="5.08" y="-2.54" visible="off" length="short" direction="pas" function="dot" rot="R180"/>
</symbol>
<symbol name="CRYSTAL">
<wire x1="1.016" y1="0" x2="2.54" y2="0" width="0.1524" layer="94"/>
<wire x1="-2.54" y1="0" x2="-1.016" y2="0" width="0.1524" layer="94"/>
<wire x1="-0.381" y1="1.524" x2="-0.381" y2="-1.524" width="0.254" layer="94"/>
<wire x1="-0.381" y1="-1.524" x2="0.381" y2="-1.524" width="0.254" layer="94"/>
<wire x1="0.381" y1="-1.524" x2="0.381" y2="1.524" width="0.254" layer="94"/>
<wire x1="0.381" y1="1.524" x2="-0.381" y2="1.524" width="0.254" layer="94"/>
<wire x1="1.016" y1="1.778" x2="1.016" y2="-1.778" width="0.254" layer="94"/>
<wire x1="-1.016" y1="1.778" x2="-1.016" y2="0" width="0.254" layer="94"/>
<wire x1="-1.016" y1="0" x2="-1.016" y2="-1.778" width="0.254" layer="94"/>
<text x="-1.016" y="2.54" size="1.778" layer="95">&gt;NAME</text>
<text x="-1.016" y="-4.318" size="1.778" layer="96">&gt;VALUE</text>
<pin name="2" x="2.54" y="0" visible="off" length="point" direction="pas" swaplevel="1" rot="R180"/>
<pin name="1" x="-2.54" y="0" visible="off" length="point" direction="pas" swaplevel="1"/>
</symbol>
<symbol name="CAP-NONPOLARIZED">
<description>non-polarized capacitor</description>
<wire x1="-1.778" y1="1.524" x2="-1.778" y2="0" width="0.254" layer="94"/>
<wire x1="-1.778" y1="0" x2="-1.778" y2="-1.524" width="0.254" layer="94"/>
<wire x1="-0.762" y1="1.524" x2="-0.762" y2="0" width="0.254" layer="94"/>
<wire x1="-0.762" y1="0" x2="-0.762" y2="-1.524" width="0.254" layer="94"/>
<wire x1="-2.54" y1="0" x2="-1.778" y2="0" width="0.1524" layer="94"/>
<wire x1="-0.762" y1="0" x2="0" y2="0" width="0.1524" layer="94"/>
<text x="-3.81" y="2.54" size="1.778" layer="95">&gt;NAME</text>
<text x="-3.81" y="-3.81" size="1.778" layer="96">&gt;VALUE</text>
<pin name="1" x="-5.08" y="0" visible="off" length="short" direction="pas" swaplevel="1"/>
<pin name="2" x="2.54" y="0" visible="off" length="short" direction="pas" swaplevel="1" rot="R180"/>
</symbol>
<symbol name="R-US">
<wire x1="-2.54" y1="0" x2="-2.159" y2="1.016" width="0.2032" layer="94"/>
<wire x1="-2.159" y1="1.016" x2="-1.524" y2="-1.016" width="0.2032" layer="94"/>
<wire x1="-1.524" y1="-1.016" x2="-0.889" y2="1.016" width="0.2032" layer="94"/>
<wire x1="-0.889" y1="1.016" x2="-0.254" y2="-1.016" width="0.2032" layer="94"/>
<wire x1="-0.254" y1="-1.016" x2="0.381" y2="1.016" width="0.2032" layer="94"/>
<wire x1="0.381" y1="1.016" x2="1.016" y2="-1.016" width="0.2032" layer="94"/>
<wire x1="1.016" y1="-1.016" x2="1.651" y2="1.016" width="0.2032" layer="94"/>
<wire x1="1.651" y1="1.016" x2="2.286" y2="-1.016" width="0.2032" layer="94"/>
<wire x1="2.286" y1="-1.016" x2="2.54" y2="0" width="0.2032" layer="94"/>
<text x="-3.81" y="1.4986" size="1.778" layer="95">&gt;NAME</text>
<text x="-3.81" y="-3.302" size="1.778" layer="96">&gt;VALUE</text>
<pin name="2" x="5.08" y="0" visible="off" length="short" direction="pas" swaplevel="1" rot="R180"/>
<pin name="1" x="-5.08" y="0" visible="off" length="short" direction="pas" swaplevel="1"/>
</symbol>
<symbol name="FTDI">
<pin name="GND" x="0" y="12.7" length="middle"/>
<pin name="CTS" x="0" y="10.16" length="middle"/>
<pin name="VCC" x="0" y="7.62" length="middle"/>
<pin name="TXD" x="0" y="5.08" length="middle"/>
<pin name="RXD" x="0" y="2.54" length="middle"/>
<wire x1="12.7" y1="17.018" x2="2.54" y2="17.018" width="0.254" layer="94"/>
<wire x1="2.54" y1="17.018" x2="2.54" y2="-4.064" width="0.254" layer="94"/>
<wire x1="2.54" y1="-4.064" x2="12.7" y2="-4.064" width="0.254" layer="94"/>
<wire x1="12.7" y1="-4.064" x2="12.7" y2="17.018" width="0.254" layer="94"/>
<pin name="RTS" x="0" y="0" length="middle"/>
<text x="3.81" y="14.478" size="1.778" layer="95">(Black)</text>
<text x="3.302" y="-3.048" size="1.778" layer="95">(Green)</text>
</symbol>
<symbol name="LED-RGB">
<wire x1="6.35" y1="1.778" x2="5.08" y2="-0.254" width="0.254" layer="94"/>
<wire x1="5.08" y1="-0.254" x2="3.81" y2="1.778" width="0.254" layer="94"/>
<wire x1="6.35" y1="-0.254" x2="5.08" y2="-0.254" width="0.254" layer="94"/>
<wire x1="5.08" y1="-0.254" x2="3.81" y2="-0.254" width="0.254" layer="94"/>
<wire x1="6.35" y1="1.778" x2="3.81" y2="1.778" width="0.254" layer="94"/>
<wire x1="3.048" y1="1.524" x2="2.159" y2="0.635" width="0.1524" layer="94"/>
<wire x1="3.81" y1="0.762" x2="2.921" y2="-0.127" width="0.1524" layer="94"/>
<wire x1="1.27" y1="1.778" x2="0" y2="-0.254" width="0.254" layer="94"/>
<wire x1="0" y1="-0.254" x2="-1.27" y2="1.778" width="0.254" layer="94"/>
<wire x1="1.27" y1="-0.254" x2="0" y2="-0.254" width="0.254" layer="94"/>
<wire x1="0" y1="-0.254" x2="-1.27" y2="-0.254" width="0.254" layer="94"/>
<wire x1="1.27" y1="1.778" x2="-1.27" y2="1.778" width="0.254" layer="94"/>
<wire x1="-2.032" y1="1.524" x2="-2.921" y2="0.635" width="0.1524" layer="94"/>
<wire x1="-1.27" y1="0.762" x2="-2.159" y2="-0.127" width="0.1524" layer="94"/>
<wire x1="-3.81" y1="1.778" x2="-5.08" y2="-0.254" width="0.254" layer="94"/>
<wire x1="-5.08" y1="-0.254" x2="-6.35" y2="1.778" width="0.254" layer="94"/>
<wire x1="-3.81" y1="-0.254" x2="-5.08" y2="-0.254" width="0.254" layer="94"/>
<wire x1="-5.08" y1="-0.254" x2="-6.35" y2="-0.254" width="0.254" layer="94"/>
<wire x1="-3.81" y1="1.778" x2="-6.35" y2="1.778" width="0.254" layer="94"/>
<wire x1="-7.112" y1="1.524" x2="-8.001" y2="0.635" width="0.1524" layer="94"/>
<wire x1="-6.35" y1="0.762" x2="-7.239" y2="-0.127" width="0.1524" layer="94"/>
<wire x1="-5.08" y1="2.54" x2="0" y2="2.54" width="0.1524" layer="94"/>
<wire x1="0" y1="2.54" x2="0" y2="0" width="0.1524" layer="94"/>
<wire x1="0" y1="2.54" x2="5.08" y2="2.54" width="0.1524" layer="94"/>
<wire x1="5.08" y1="2.54" x2="5.08" y2="0" width="0.1524" layer="94"/>
<circle x="-5.08" y="2.54" radius="0.1796" width="0.254" layer="94"/>
<circle x="0" y="2.54" radius="0.1796" width="0.254" layer="94"/>
<text x="-2.54" y="3.302" size="1.778" layer="95">&gt;NAME</text>
<text x="-2.54" y="5.461" size="1.778" layer="96">&gt;VALUE</text>
<pin name="CGREEN" x="5.08" y="-2.54" visible="pad" length="short" direction="pas" rot="R90"/>
<pin name="CBLUE" x="0" y="-2.54" visible="pad" length="short" direction="pas" rot="R90"/>
<pin name="CRED" x="-5.08" y="-2.54" visible="pad" length="short" direction="pas" rot="R90"/>
<pin name="A2" x="-5.08" y="5.08" visible="pad" length="middle" direction="pas" rot="R270"/>
<polygon width="0.1524" layer="94">
<vertex x="2.032" y="1.016"/>
<vertex x="1.778" y="0.254"/>
<vertex x="2.54" y="0.508"/>
</polygon>
<polygon width="0.1524" layer="94">
<vertex x="2.794" y="0.254"/>
<vertex x="2.54" y="-0.508"/>
<vertex x="3.302" y="-0.254"/>
</polygon>
<polygon width="0.1524" layer="94">
<vertex x="-3.048" y="1.016"/>
<vertex x="-3.302" y="0.254"/>
<vertex x="-2.54" y="0.508"/>
</polygon>
<polygon width="0.1524" layer="94">
<vertex x="-2.286" y="0.254"/>
<vertex x="-2.54" y="-0.508"/>
<vertex x="-1.778" y="-0.254"/>
</polygon>
<polygon width="0.1524" layer="94">
<vertex x="-8.128" y="1.016"/>
<vertex x="-8.382" y="0.254"/>
<vertex x="-7.62" y="0.508"/>
</polygon>
<polygon width="0.1524" layer="94">
<vertex x="-7.366" y="0.254"/>
<vertex x="-7.62" y="-0.508"/>
<vertex x="-6.858" y="-0.254"/>
</polygon>
</symbol>
<symbol name="PINH2X2">
<wire x1="-8.89" y1="-2.54" x2="6.35" y2="-2.54" width="0.4064" layer="94"/>
<wire x1="6.35" y1="-2.54" x2="6.35" y2="5.08" width="0.4064" layer="94"/>
<wire x1="6.35" y1="5.08" x2="-8.89" y2="5.08" width="0.4064" layer="94"/>
<wire x1="-8.89" y1="5.08" x2="-8.89" y2="-2.54" width="0.4064" layer="94"/>
<text x="-8.89" y="5.715" size="1.778" layer="95">&gt;NAME</text>
<text x="-8.89" y="-5.08" size="1.778" layer="96">&gt;VALUE</text>
<pin name="1" x="-5.08" y="2.54" visible="pad" length="short" direction="pas" function="dot"/>
<pin name="2" x="2.54" y="2.54" visible="pad" length="short" direction="pas" function="dot" rot="R180"/>
<pin name="3" x="-5.08" y="0" visible="pad" length="short" direction="pas" function="dot"/>
<pin name="4" x="2.54" y="0" visible="pad" length="short" direction="pas" function="dot" rot="R180"/>
</symbol>
</symbols>
<devicesets>
<deviceset name="ATTINY44" prefix="IC">
<gates>
<gate name="1" symbol="ATTINY24/44/84" x="0" y="0"/>
</gates>
<devices>
<device name="-SSU" package="SOIC14">
<connects>
<connect gate="1" pin="(PCINT0/AREF/ADC0)PA0" pad="13"/>
<connect gate="1" pin="(PCINT1/AIN0/ADC1)PA1" pad="12"/>
<connect gate="1" pin="(PCINT10/INT0/OC0A/CKOUT)PB2" pad="5"/>
<connect gate="1" pin="(PCINT11/RESET/DW)PB3" pad="4"/>
<connect gate="1" pin="(PCINT2/AIN1/ADC2)PA2" pad="11"/>
<connect gate="1" pin="(PCINT3/T0/ADC3)PA3" pad="10"/>
<connect gate="1" pin="(PCINT4/T1/SCL/USCK/ADC4)PA4" pad="9"/>
<connect gate="1" pin="(PCINT5/OC1B/MISO/DO/ADC5)PA5" pad="8"/>
<connect gate="1" pin="(PCINT6/OC1A/SDA/MOSI/ADC6)PA6" pad="7"/>
<connect gate="1" pin="(PCINT7/ICP/OC0B/ADC7)PA7" pad="6"/>
<connect gate="1" pin="(PCINT8/XTAL1/CLKI)PB0" pad="2"/>
<connect gate="1" pin="(PCINT9/XTAL2)PB1" pad="3"/>
<connect gate="1" pin="GND" pad="14"/>
<connect gate="1" pin="VCC" pad="1"/>
</connects>
<technologies>
<technology name=""/>
</technologies>
</device>
<device name="-PU" package="DIL14">
<connects>
<connect gate="1" pin="(PCINT0/AREF/ADC0)PA0" pad="13"/>
<connect gate="1" pin="(PCINT1/AIN0/ADC1)PA1" pad="12"/>
<connect gate="1" pin="(PCINT10/INT0/OC0A/CKOUT)PB2" pad="5"/>
<connect gate="1" pin="(PCINT11/RESET/DW)PB3" pad="4"/>
<connect gate="1" pin="(PCINT2/AIN1/ADC2)PA2" pad="11"/>
<connect gate="1" pin="(PCINT3/T0/ADC3)PA3" pad="10"/>
<connect gate="1" pin="(PCINT4/T1/SCL/USCK/ADC4)PA4" pad="9"/>
<connect gate="1" pin="(PCINT5/OC1B/MISO/DO/ADC5)PA5" pad="8"/>
<connect gate="1" pin="(PCINT6/OC1A/SDA/MOSI/ADC6)PA6" pad="7"/>
<connect gate="1" pin="(PCINT7/ICP/OC0B/ADC7)PA7" pad="6"/>
<connect gate="1" pin="(PCINT8/XTAL1/CLKI)PB0" pad="2"/>
<connect gate="1" pin="(PCINT9/XTAL2)PB1" pad="3"/>
<connect gate="1" pin="GND" pad="14"/>
<connect gate="1" pin="VCC" pad="1"/>
</connects>
<technologies>
<technology name=""/>
</technologies>
</device>
<device name="-MU" package="QFN/MLF20">
<connects>
<connect gate="1" pin="(PCINT0/AREF/ADC0)PA0" pad="5"/>
<connect gate="1" pin="(PCINT1/AIN0/ADC1)PA1" pad="4"/>
<connect gate="1" pin="(PCINT10/INT0/OC0A/CKOUT)PB2" pad="14"/>
<connect gate="1" pin="(PCINT11/RESET/DW)PB3" pad="13"/>
<connect gate="1" pin="(PCINT2/AIN1/ADC2)PA2" pad="3"/>
<connect gate="1" pin="(PCINT3/T0/ADC3)PA3" pad="2"/>
<connect gate="1" pin="(PCINT4/T1/SCL/USCK/ADC4)PA4" pad="1"/>
<connect gate="1" pin="(PCINT5/OC1B/MISO/DO/ADC5)PA5" pad="20"/>
<connect gate="1" pin="(PCINT6/OC1A/SDA/MOSI/ADC6)PA6" pad="16"/>
<connect gate="1" pin="(PCINT7/ICP/OC0B/ADC7)PA7" pad="15"/>
<connect gate="1" pin="(PCINT8/XTAL1/CLKI)PB0" pad="11"/>
<connect gate="1" pin="(PCINT9/XTAL2)PB1" pad="12"/>
<connect gate="1" pin="GND" pad="8"/>
<connect gate="1" pin="VCC" pad="9"/>
</connects>
<technologies>
<technology name=""/>
</technologies>
</device>
</devices>
</deviceset>
<deviceset name="AVRISP">
<gates>
<gate name="G$1" symbol="AVRISP" x="0" y="0"/>
</gates>
<devices>
<device name="SMD" package="2X03SMD">
<connects>
<connect gate="G$1" pin="GND" pad="6"/>
<connect gate="G$1" pin="MISO" pad="1"/>
<connect gate="G$1" pin="MOSI" pad="4"/>
<connect gate="G$1" pin="RST" pad="5"/>
<connect gate="G$1" pin="SCK" pad="3"/>
<connect gate="G$1" pin="VCC" pad="2"/>
</connects>
<technologies>
<technology name=""/>
</technologies>
</device>
<device name="" package="2X03">
<connects>
<connect gate="G$1" pin="GND" pad="6"/>
<connect gate="G$1" pin="MISO" pad="1"/>
<connect gate="G$1" pin="MOSI" pad="4"/>
<connect gate="G$1" pin="RST" pad="5"/>
<connect gate="G$1" pin="SCK" pad="3"/>
<connect gate="G$1" pin="VCC" pad="2"/>
</connects>
<technologies>
<technology name=""/>
</technologies>
</device>
</devices>
</deviceset>
<deviceset name="CRYSTAL">
<gates>
<gate name="G$1" symbol="CRYSTAL" x="0" y="0"/>
</gates>
<devices>
<device name="" package="2-SMD-5X3MM">
<connects>
<connect gate="G$1" pin="1" pad="P$1"/>
<connect gate="G$1" pin="2" pad="P$2"/>
</connects>
<technologies>
<technology name=""/>
</technologies>
</device>
</devices>
</deviceset>
<deviceset name="CAP-UNPOLARIZED" prefix="C" uservalue="yes">
<gates>
<gate name="&gt;NAME" symbol="CAP-NONPOLARIZED" x="0" y="0"/>
</gates>
<devices>
<device name="" package="C1206">
<connects>
<connect gate="&gt;NAME" pin="1" pad="1"/>
<connect gate="&gt;NAME" pin="2" pad="2"/>
</connects>
<technologies>
<technology name=""/>
</technologies>
</device>
<device name="FAB" package="C1206FAB">
<connects>
<connect gate="&gt;NAME" pin="1" pad="1"/>
<connect gate="&gt;NAME" pin="2" pad="2"/>
</connects>
<technologies>
<technology name=""/>
</technologies>
</device>
</devices>
</deviceset>
<deviceset name="RES-US" prefix="R" uservalue="yes">
<description>&lt;b&gt;Resistor (US Symbol)&lt;/b&gt;
&lt;p&gt;
Variants with postfix FAB are widened to allow the routing of internal traces</description>
<gates>
<gate name="G$1" symbol="R-US" x="0" y="0"/>
</gates>
<devices>
<device name="1206" package="R1206">
<connects>
<connect gate="G$1" pin="1" pad="1"/>
<connect gate="G$1" pin="2" pad="2"/>
</connects>
<technologies>
<technology name=""/>
</technologies>
</device>
<device name="1206W" package="R1206W">
<connects>
<connect gate="G$1" pin="1" pad="1"/>
<connect gate="G$1" pin="2" pad="2"/>
</connects>
<technologies>
<technology name=""/>
</technologies>
</device>
<device name="1206FAB" package="R1206FAB">
<connects>
<connect gate="G$1" pin="1" pad="1"/>
<connect gate="G$1" pin="2" pad="2"/>
</connects>
<technologies>
<technology name=""/>
</technologies>
</device>
</devices>
</deviceset>
<deviceset name="FTDI-SMD-HEADER">
<gates>
<gate name="G$1" symbol="FTDI" x="-7.62" y="-5.08"/>
</gates>
<devices>
<device name="" package="1X06SMD">
<connects>
<connect gate="G$1" pin="CTS" pad="2"/>
<connect gate="G$1" pin="GND" pad="1"/>
<connect gate="G$1" pin="RTS" pad="6"/>
<connect gate="G$1" pin="RXD" pad="5"/>
<connect gate="G$1" pin="TXD" pad="4"/>
<connect gate="G$1" pin="VCC" pad="3"/>
</connects>
<technologies>
<technology name=""/>
</technologies>
</device>
</devices>
</deviceset>
<deviceset name="LEDRGBNEW">
<gates>
<gate name="G$1" symbol="LED-RGB" x="0" y="-2.54"/>
</gates>
<devices>
<device name="" package="P-LCC-4">
<connects>
<connect gate="G$1" pin="A2" pad="A"/>
<connect gate="G$1" pin="CBLUE" pad="B"/>
<connect gate="G$1" pin="CGREEN" pad="G"/>
<connect gate="G$1" pin="CRED" pad="R"/>
</connects>
<technologies>
<technology name=""/>
</technologies>
</device>
</devices>
</deviceset>
<deviceset name="PINHD-2X2-SMD">
<gates>
<gate name="G$1" symbol="PINH2X2" x="2.54" y="0"/>
</gates>
<devices>
<device name="" package="2X02SMD">
<connects>
<connect gate="G$1" pin="1" pad="1"/>
<connect gate="G$1" pin="2" pad="2"/>
<connect gate="G$1" pin="3" pad="3"/>
<connect gate="G$1" pin="4" pad="4"/>
</connects>
<technologies>
<technology name=""/>
</technologies>
</device>
</devices>
</deviceset>
</devicesets>
</library>
<library name="supply1" urn="urn:adsk.eagle:library:371">
<description>&lt;b&gt;Supply Symbols&lt;/b&gt;&lt;p&gt;
 GND, VCC, 0V, +5V, -5V, etc.&lt;p&gt;
 Please keep in mind, that these devices are necessary for the
 automatic wiring of the supply signals.&lt;p&gt;
 The pin name defined in the symbol is identical to the net which is to be wired automatically.&lt;p&gt;
 In this library the device names are the same as the pin names of the symbols, therefore the correct signal names appear next to the supply symbols in the schematic.&lt;p&gt;
 &lt;author&gt;Created by librarian@cadsoft.de&lt;/author&gt;</description>
<packages>
</packages>
<symbols>
<symbol name="VCC" urn="urn:adsk.eagle:symbol:26928/1" library_version="1">
<wire x1="1.27" y1="-1.905" x2="0" y2="0" width="0.254" layer="94"/>
<wire x1="0" y1="0" x2="-1.27" y2="-1.905" width="0.254" layer="94"/>
<text x="-2.54" y="-2.54" size="1.778" layer="96" rot="R90">&gt;VALUE</text>
<pin name="VCC" x="0" y="-2.54" visible="off" length="short" direction="sup" rot="R90"/>
</symbol>
<symbol name="GND" urn="urn:adsk.eagle:symbol:26925/1" library_version="1">
<wire x1="-1.905" y1="0" x2="1.905" y2="0" width="0.254" layer="94"/>
<text x="-2.54" y="-2.54" size="1.778" layer="96">&gt;VALUE</text>
<pin name="GND" x="0" y="2.54" visible="off" length="short" direction="sup" rot="R270"/>
</symbol>
</symbols>
<devicesets>
<deviceset name="VCC" urn="urn:adsk.eagle:component:26957/1" prefix="P+" library_version="1">
<description>&lt;b&gt;SUPPLY SYMBOL&lt;/b&gt;</description>
<gates>
<gate name="VCC" symbol="VCC" x="0" y="0"/>
</gates>
<devices>
<device name="">
<technologies>
<technology name=""/>
</technologies>
</device>
</devices>
</deviceset>
<deviceset name="GND" urn="urn:adsk.eagle:component:26954/1" prefix="GND" library_version="1">
<description>&lt;b&gt;SUPPLY SYMBOL&lt;/b&gt;</description>
<gates>
<gate name="1" symbol="GND" x="0" y="0"/>
</gates>
<devices>
<device name="">
<technologies>
<technology name=""/>
</technologies>
</device>
</devices>
</deviceset>
</devicesets>
</library>
</libraries>
<attributes>
</attributes>
<variantdefs>
</variantdefs>
<classes>
<class number="0" name="default" width="0" drill="0">
</class>
</classes>
<parts>
<part name="IC1" library="fab" deviceset="ATTINY44" device="-SSU"/>
<part name="P+1" library="supply1" library_urn="urn:adsk.eagle:library:371" deviceset="VCC" device=""/>
<part name="GND1" library="supply1" library_urn="urn:adsk.eagle:library:371" deviceset="GND" device=""/>
<part name="U$1" library="fab" deviceset="AVRISP" device="SMD"/>
<part name="U$2" library="fab" deviceset="CRYSTAL" device=""/>
<part name="C1" library="fab" deviceset="CAP-UNPOLARIZED" device="FAB" value="22pF"/>
<part name="C2" library="fab" deviceset="CAP-UNPOLARIZED" device="FAB" value="22pF"/>
<part name="R1" library="fab" deviceset="RES-US" device="1206FAB" value="0 ohm"/>
<part name="U$4" library="fab" deviceset="FTDI-SMD-HEADER" device=""/>
<part name="U$5" library="fab" deviceset="LEDRGBNEW" device=""/>
<part name="U$6" library="fab" deviceset="PINHD-2X2-SMD" device=""/>
<part name="R2" library="fab" deviceset="RES-US" device="1206FAB"/>
<part name="R3" library="fab" deviceset="RES-US" device="1206FAB" value="1k"/>
<part name="R4" library="fab" deviceset="RES-US" device="1206FAB" value="1k"/>
<part name="R5" library="fab" deviceset="RES-US" device="1206FAB" value="499"/>
<part name="R6" library="fab" deviceset="RES-US" device="1206FAB"/>
</parts>
<sheets>
<sheet>
<plain>
</plain>
<instances>
<instance part="IC1" gate="1" x="40.64" y="53.34" smashed="yes">
<attribute name="VALUE" x="38.1" y="33.02" size="1.778" layer="96"/>
<attribute name="NAME" x="38.1" y="71.882" size="1.778" layer="95"/>
</instance>
<instance part="P+1" gate="VCC" x="22.86" y="60.96" smashed="yes">
<attribute name="VALUE" x="20.32" y="58.42" size="1.778" layer="96" rot="R90"/>
</instance>
<instance part="GND1" gate="1" x="22.86" y="38.1" smashed="yes">
<attribute name="VALUE" x="20.32" y="35.56" size="1.778" layer="96"/>
</instance>
<instance part="U$1" gate="G$1" x="119.38" y="83.82" smashed="yes">
<attribute name="NAME" x="113.03" y="89.535" size="1.778" layer="95"/>
<attribute name="VALUE" x="113.03" y="76.2" size="1.778" layer="96"/>
</instance>
<instance part="U$2" gate="G$1" x="101.6" y="60.96" smashed="yes" rot="R270">
<attribute name="NAME" x="104.14" y="61.976" size="1.778" layer="95" rot="R270"/>
<attribute name="VALUE" x="97.282" y="61.976" size="1.778" layer="96" rot="R270"/>
</instance>
<instance part="C1" gate="&gt;NAME" x="116.84" y="66.04" smashed="yes">
<attribute name="NAME" x="113.03" y="68.58" size="1.778" layer="95"/>
<attribute name="VALUE" x="113.03" y="62.23" size="1.778" layer="96"/>
</instance>
<instance part="C2" gate="&gt;NAME" x="127" y="58.42" smashed="yes">
<attribute name="NAME" x="123.19" y="60.96" size="1.778" layer="95"/>
<attribute name="VALUE" x="123.19" y="54.61" size="1.778" layer="96"/>
</instance>
<instance part="R1" gate="G$1" x="76.2" y="15.24" smashed="yes">
<attribute name="NAME" x="72.39" y="16.7386" size="1.778" layer="95"/>
<attribute name="VALUE" x="72.39" y="11.938" size="1.778" layer="96"/>
</instance>
<instance part="U$4" gate="G$1" x="147.32" y="17.78" smashed="yes"/>
<instance part="U$5" gate="G$1" x="109.22" y="27.94" smashed="yes" rot="R270">
<attribute name="NAME" x="104.902" y="30.48" size="1.778" layer="95"/>
<attribute name="VALUE" x="114.3" y="28.321" size="1.778" layer="96"/>
</instance>
<instance part="U$6" gate="G$1" x="152.4" y="55.88" smashed="yes">
<attribute name="NAME" x="143.51" y="61.595" size="1.778" layer="95"/>
<attribute name="VALUE" x="143.51" y="50.8" size="1.778" layer="96"/>
</instance>
<instance part="R2" gate="G$1" x="167.64" y="55.88" smashed="yes" rot="R270">
<attribute name="NAME" x="169.1386" y="59.69" size="1.778" layer="95" rot="R270"/>
<attribute name="VALUE" x="164.338" y="59.69" size="1.778" layer="96" rot="R270"/>
</instance>
<instance part="R3" gate="G$1" x="91.44" y="25.4" smashed="yes" rot="R90">
<attribute name="NAME" x="89.9414" y="21.59" size="1.778" layer="95" rot="R90"/>
<attribute name="VALUE" x="94.742" y="21.59" size="1.778" layer="96" rot="R90"/>
</instance>
<instance part="R4" gate="G$1" x="99.06" y="33.02" smashed="yes" rot="R90">
<attribute name="NAME" x="97.5614" y="29.21" size="1.778" layer="95" rot="R90"/>
<attribute name="VALUE" x="102.362" y="29.21" size="1.778" layer="96" rot="R90"/>
</instance>
<instance part="R5" gate="G$1" x="106.68" y="15.24" smashed="yes" rot="R90">
<attribute name="NAME" x="102.6414" y="13.97" size="1.778" layer="95" rot="R90"/>
<attribute name="VALUE" x="109.982" y="11.43" size="1.778" layer="96" rot="R90"/>
</instance>
<instance part="R6" gate="G$1" x="40.64" y="7.62" smashed="yes">
<attribute name="NAME" x="36.83" y="9.1186" size="1.778" layer="95"/>
<attribute name="VALUE" x="36.83" y="4.318" size="1.778" layer="96"/>
</instance>
</instances>
<busses>
</busses>
<nets>
<net name="GND" class="0">
<segment>
<pinref part="GND1" gate="1" pin="GND"/>
<pinref part="IC1" gate="1" pin="GND"/>
<wire x1="22.86" y1="40.64" x2="33.02" y2="40.64" width="0.1524" layer="91"/>
<wire x1="33.02" y1="40.64" x2="33.02" y2="38.1" width="0.1524" layer="91"/>
</segment>
<segment>
<pinref part="U$1" gate="G$1" pin="GND"/>
<wire x1="124.46" y1="81.28" x2="152.4" y2="81.28" width="0.1524" layer="91"/>
<label x="152.4" y="81.28" size="1.778" layer="95"/>
</segment>
<segment>
<pinref part="C2" gate="&gt;NAME" pin="2"/>
<wire x1="129.54" y1="58.42" x2="129.54" y2="66.04" width="0.1524" layer="91"/>
<pinref part="C1" gate="&gt;NAME" pin="2"/>
<wire x1="129.54" y1="66.04" x2="119.38" y2="66.04" width="0.1524" layer="91"/>
<label x="129.54" y="66.04" size="1.778" layer="95"/>
</segment>
<segment>
<pinref part="U$4" gate="G$1" pin="GND"/>
<wire x1="147.32" y1="30.48" x2="142.24" y2="30.48" width="0.1524" layer="91"/>
<label x="142.24" y="30.48" size="1.778" layer="95"/>
</segment>
<segment>
<pinref part="U$6" gate="G$1" pin="1"/>
<wire x1="147.32" y1="58.42" x2="147.32" y2="66.04" width="0.1524" layer="91"/>
<label x="147.32" y="66.04" size="1.778" layer="95"/>
</segment>
</net>
<net name="VCC" class="0">
<segment>
<pinref part="P+1" gate="VCC" pin="VCC"/>
<pinref part="IC1" gate="1" pin="VCC"/>
<wire x1="22.86" y1="58.42" x2="22.86" y2="50.8" width="0.1524" layer="91"/>
<wire x1="22.86" y1="50.8" x2="33.02" y2="50.8" width="0.1524" layer="91"/>
</segment>
<segment>
<pinref part="U$1" gate="G$1" pin="VCC"/>
<wire x1="124.46" y1="86.36" x2="137.16" y2="86.36" width="0.1524" layer="91"/>
<label x="137.16" y="86.36" size="1.778" layer="95"/>
</segment>
<segment>
<pinref part="U$4" gate="G$1" pin="VCC"/>
<wire x1="147.32" y1="25.4" x2="142.24" y2="25.4" width="0.1524" layer="91"/>
<label x="142.24" y="25.4" size="1.778" layer="95"/>
</segment>
<segment>
<pinref part="U$5" gate="G$1" pin="A2"/>
<wire x1="114.3" y1="33.02" x2="116.84" y2="35.56" width="0.1524" layer="91"/>
<label x="116.84" y="35.56" size="1.778" layer="95"/>
</segment>
</net>
<net name="MOSI" class="0">
<segment>
<pinref part="U$1" gate="G$1" pin="MOSI"/>
<wire x1="124.46" y1="83.82" x2="144.78" y2="83.82" width="0.1524" layer="91"/>
<label x="144.78" y="83.82" size="1.778" layer="95"/>
</segment>
<segment>
<pinref part="IC1" gate="1" pin="(PCINT6/OC1A/SDA/MOSI/ADC6)PA6"/>
<wire x1="91.44" y1="53.34" x2="104.14" y2="53.34" width="0.1524" layer="91"/>
<label x="104.14" y="53.34" size="1.778" layer="95"/>
</segment>
</net>
<net name="MISO" class="0">
<segment>
<pinref part="R5" gate="G$1" pin="1"/>
<wire x1="106.68" y1="10.16" x2="114.3" y2="10.16" width="0.1524" layer="91"/>
<label x="116.84" y="10.16" size="1.778" layer="95"/>
</segment>
<segment>
<pinref part="U$1" gate="G$1" pin="MISO"/>
<wire x1="116.84" y1="86.36" x2="104.14" y2="86.36" width="0.1524" layer="91"/>
<label x="104.14" y="86.36" size="1.778" layer="95"/>
</segment>
<segment>
<pinref part="IC1" gate="1" pin="(PCINT5/OC1B/MISO/DO/ADC5)PA5"/>
<wire x1="91.44" y1="50.8" x2="111.76" y2="50.8" width="0.1524" layer="91"/>
<label x="111.76" y="50.8" size="1.778" layer="95"/>
</segment>
</net>
<net name="SCK" class="0">
<segment>
<pinref part="U$1" gate="G$1" pin="SCK"/>
<wire x1="116.84" y1="83.82" x2="104.14" y2="83.82" width="0.1524" layer="91"/>
<label x="104.14" y="83.82" size="1.778" layer="95"/>
</segment>
<segment>
<pinref part="IC1" gate="1" pin="(PCINT4/T1/SCL/USCK/ADC4)PA4"/>
<wire x1="91.44" y1="48.26" x2="101.6" y2="48.26" width="0.1524" layer="91"/>
<label x="101.6" y="48.26" size="1.778" layer="95"/>
</segment>
</net>
<net name="RST" class="0">
<segment>
<pinref part="U$1" gate="G$1" pin="RST"/>
<wire x1="116.84" y1="81.28" x2="104.14" y2="81.28" width="0.1524" layer="91"/>
<label x="104.14" y="81.28" size="1.778" layer="95"/>
</segment>
<segment>
<pinref part="IC1" gate="1" pin="(PCINT11/RESET/DW)PB3"/>
<wire x1="91.44" y1="68.58" x2="101.6" y2="68.58" width="0.1524" layer="91"/>
<label x="101.6" y="68.58" size="1.778" layer="95"/>
</segment>
</net>
<net name="N$2" class="0">
<segment>
<pinref part="U$2" gate="G$1" pin="2"/>
<wire x1="101.6" y1="58.42" x2="93.98" y2="58.42" width="0.1524" layer="91"/>
<pinref part="C2" gate="&gt;NAME" pin="1"/>
<wire x1="101.6" y1="58.42" x2="121.92" y2="58.42" width="0.1524" layer="91"/>
<junction x="101.6" y="58.42"/>
<wire x1="93.98" y1="58.42" x2="93.98" y2="63.5" width="0.1524" layer="91"/>
<pinref part="IC1" gate="1" pin="(PCINT9/XTAL2)PB1"/>
<wire x1="93.98" y1="63.5" x2="91.44" y2="63.5" width="0.1524" layer="91"/>
</segment>
</net>
<net name="N$8" class="0">
<segment>
<pinref part="U$4" gate="G$1" pin="TXD"/>
<wire x1="147.32" y1="22.86" x2="139.7" y2="22.86" width="0.1524" layer="91"/>
<wire x1="139.7" y1="45.72" x2="139.7" y2="22.86" width="0.1524" layer="91"/>
<pinref part="IC1" gate="1" pin="(PCINT3/T0/ADC3)PA3"/>
<wire x1="91.44" y1="45.72" x2="139.7" y2="45.72" width="0.1524" layer="91"/>
</segment>
</net>
<net name="2" class="0">
<segment>
<pinref part="IC1" gate="1" pin="(PCINT8/XTAL1/CLKI)PB0"/>
<wire x1="91.44" y1="60.96" x2="91.44" y2="58.42" width="0.1524" layer="91"/>
<label x="91.44" y="58.42" size="1.778" layer="95"/>
</segment>
<segment>
<pinref part="U$2" gate="G$1" pin="1"/>
<wire x1="101.6" y1="63.5" x2="111.76" y2="63.5" width="0.1524" layer="91"/>
<pinref part="C1" gate="&gt;NAME" pin="1"/>
<wire x1="111.76" y1="63.5" x2="111.76" y2="66.04" width="0.1524" layer="91"/>
<wire x1="101.6" y1="66.04" x2="101.6" y2="63.5" width="0.1524" layer="91"/>
<junction x="101.6" y="63.5"/>
<label x="101.6" y="66.04" size="1.778" layer="95"/>
</segment>
</net>
<net name="6" class="0">
<segment>
<pinref part="IC1" gate="1" pin="(PCINT7/ICP/OC0B/ADC7)PA7"/>
<wire x1="91.44" y1="55.88" x2="93.98" y2="55.88" width="0.1524" layer="91"/>
<label x="93.98" y="55.88" size="1.778" layer="95"/>
</segment>
<segment>
<pinref part="U$6" gate="G$1" pin="4"/>
<pinref part="R2" gate="G$1" pin="2"/>
<wire x1="154.94" y1="55.88" x2="167.64" y2="50.8" width="0.1524" layer="91"/>
<wire x1="167.64" y1="50.8" x2="172.72" y2="50.8" width="0.1524" layer="91"/>
<junction x="167.64" y="50.8"/>
<label x="172.72" y="50.8" size="1.778" layer="95"/>
</segment>
</net>
<net name="N$4" class="0">
<segment>
<pinref part="R4" gate="G$1" pin="1"/>
<pinref part="U$5" gate="G$1" pin="CRED"/>
<wire x1="99.06" y1="27.94" x2="106.68" y2="33.02" width="0.1524" layer="91"/>
</segment>
</net>
<net name="N$5" class="0">
<segment>
<pinref part="U$5" gate="G$1" pin="CBLUE"/>
<pinref part="R3" gate="G$1" pin="1"/>
<wire x1="106.68" y1="27.94" x2="91.44" y2="20.32" width="0.1524" layer="91"/>
</segment>
</net>
<net name="N$6" class="0">
<segment>
<pinref part="R3" gate="G$1" pin="2"/>
<pinref part="IC1" gate="1" pin="(PCINT0/AREF/ADC0)PA0"/>
<wire x1="91.44" y1="30.48" x2="91.44" y2="38.1" width="0.1524" layer="91"/>
</segment>
</net>
<net name="N$7" class="0">
<segment>
<pinref part="U$5" gate="G$1" pin="CGREEN"/>
<pinref part="R5" gate="G$1" pin="2"/>
<wire x1="106.68" y1="22.86" x2="106.68" y2="20.32" width="0.1524" layer="91"/>
</segment>
</net>
<net name="5" class="0">
<segment>
<pinref part="U$6" gate="G$1" pin="2"/>
<pinref part="U$6" gate="G$1" pin="3"/>
<wire x1="147.32" y1="55.88" x2="154.94" y2="58.42" width="0.1524" layer="91"/>
<pinref part="R2" gate="G$1" pin="1"/>
<wire x1="154.94" y1="58.42" x2="167.64" y2="60.96" width="0.1524" layer="91"/>
<junction x="154.94" y="58.42"/>
<wire x1="167.64" y1="60.96" x2="172.72" y2="60.96" width="0.1524" layer="91"/>
<junction x="167.64" y="60.96"/>
<label x="172.72" y="63.5" size="1.778" layer="95"/>
</segment>
<segment>
<pinref part="IC1" gate="1" pin="(PCINT10/INT0/OC0A/CKOUT)PB2"/>
<wire x1="91.44" y1="66.04" x2="93.98" y2="66.04" width="0.1524" layer="91"/>
<label x="93.98" y="66.04" size="1.778" layer="95"/>
</segment>
</net>
<net name="11" class="0">
<segment>
<pinref part="IC1" gate="1" pin="(PCINT2/AIN1/ADC2)PA2"/>
<wire x1="91.44" y1="43.18" x2="93.98" y2="43.18" width="0.1524" layer="91"/>
<label x="93.98" y="43.18" size="1.778" layer="95"/>
</segment>
<segment>
<pinref part="R4" gate="G$1" pin="2"/>
<wire x1="99.06" y1="40.64" x2="99.06" y2="38.1" width="0.1524" layer="91"/>
<label x="99.06" y="40.64" size="1.778" layer="95"/>
</segment>
</net>
<net name="12" class="0">
<segment>
<pinref part="IC1" gate="1" pin="(PCINT1/AIN0/ADC1)PA1"/>
<wire x1="91.44" y1="40.64" x2="93.98" y2="40.64" width="0.1524" layer="91"/>
<label x="93.98" y="40.64" size="1.778" layer="95"/>
</segment>
<segment>
<pinref part="U$4" gate="G$1" pin="RXD"/>
<wire x1="137.16" y1="43.18" x2="137.16" y2="20.32" width="0.1524" layer="91"/>
<wire x1="137.16" y1="20.32" x2="147.32" y2="20.32" width="0.1524" layer="91"/>
<wire x1="137.16" y1="43.18" x2="109.22" y2="43.18" width="0.1524" layer="91"/>
<label x="106.68" y="43.18" size="1.778" layer="95"/>
</segment>
</net>
</nets>
</sheet>
</sheets>
</schematic>
</drawing>
<compatibility>
<note version="8.2" severity="warning">
Since Version 8.2, EAGLE supports online libraries. The ids
of those online libraries will not be understood (or retained)
with this version.
</note>
<note version="8.3" severity="warning">
Since Version 8.3, EAGLE supports URNs for individual library
assets (packages, symbols, and devices). The URNs of those assets
will not be understood (or retained) with this version.
</note>
</compatibility>
</eagle>
